<svg xmlns="http://www.w3.org/2000/svg" width="400.425" height="275.292" viewBox="0 0 400.425 275.292">
  <g id="email" transform="translate(0 -80)">
    <g id="Group_12" data-name="Group 12" transform="translate(265.432 130.754)">
      <g id="Group_11" data-name="Group 11" transform="translate(0 0)">
        <path id="Path_7" data-name="Path 7" d="M339.392,233.84l134.993,85.341V144.9Z" transform="translate(-339.392 -144.896)" fill="#3887fd"/>
      </g>
    </g>
    <g id="Group_14" data-name="Group 14" transform="translate(0 130.754)">
      <g id="Group_13" data-name="Group 13" transform="translate(0 0)">
        <path id="Path_8" data-name="Path 8" d="M0,144.9V319.181L134.993,233.84Z" transform="translate(0 -144.896)" fill="#3887fd"/>
      </g>
    </g>
    <g id="Group_16" data-name="Group 16" transform="translate(0.751 80)">
      <g id="Group_15" data-name="Group 15">
        <path id="Path_9" data-name="Path 9" d="M375.608,80H25.236C12.748,80,2.837,89.31.96,101.3L200.422,232.712,399.884,101.3C398.007,89.31,388.1,80,375.608,80Z" transform="translate(-0.96 -80)" fill="#3887fd"/>
      </g>
    </g>
    <g id="Group_18" data-name="Group 18" transform="translate(0.801 234.789)">
      <g id="Group_17" data-name="Group 17">
        <path id="Path_10" data-name="Path 10" d="M242.731,277.945,207.318,301.27a12.567,12.567,0,0,1-13.765,0l-35.413-23.35L1.024,377.3c1.927,11.888,11.788,21.122,24.226,21.122H375.622c12.438,0,22.3-9.235,24.226-21.122Z" transform="translate(-1.024 -277.92)" fill="#3887fd"/>
      </g>
    </g>
  </g>
</svg>
